…
``` r
mlv <- housing %>% 
  group_by(region, Date) %>% 
  drop_na() %>% 
  summarise( mean_land_value = mean(Land.Value))
```

    ## `summarise()` regrouping output by 'region' (override with `.groups` argument)

``` r
mlv
```

    ## # A tibble: 612 x 3
    ## # Groups:   region [4]
    ##    region   Date mean_land_value
    ##    <chr>   <dbl>           <dbl>
    ##  1 Midwest 1975.           2452.
    ##  2 Midwest 1976.           2499.
    ##  3 Midwest 1976.           2608.
    ##  4 Midwest 1976            2780 
    ##  5 Midwest 1976.           2967.
    ##  6 Midwest 1976.           3213.
    ##  7 Midwest 1977.           3504.
    ##  8 Midwest 1977            3829 
    ##  9 Midwest 1977.           4203.
    ## 10 Midwest 1978.           4675.
    ## # … with 602 more rows
…
